id,document,w1,w2,freq_text,freq_coca,mean_freq,pmi,tscore,non_pmi_c,low_pmi_c,med_pmi_c,high_pmi_c,non_t_c,low_t_c,med_t_c,high_t_c,w1_freq,w2_freq,in_coca
45639,u1a1mn06,anonymous,any,1,,,,,0,0,0,0,0,0,0,0,6501,380165,0
45821,u1a1mn06,possible,mobile,1,,,,,0,0,0,0,0,0,0,0,91868,8096,0
45729,u1a1mn06,hours,attached,1,,,,,0,0,0,0,0,0,0,0,93942,11619,0
45616,u1a1mn06,a,blessing,1,1537,3.61647058823529,3.85422209854798,36.4937728723786,0,1,0,0,0,0,0,1,9738579,4638,1
45617,u1a1mn06,a,brain,1,1602,3.76941176470588,1.14731946921679,21.9551782415712,1,0,0,0,0,0,0,1,9738579,31563,1
45618,u1a1mn06,a,car,1,14569,34.28,2.57300810855404,100.417708649162,1,0,0,0,0,0,0,1,9738579,106849,1
45619,u1a1mn06,a,curse,1,830,1.95294117647059,3.36157707081708,26.006846968044,0,1,0,0,0,0,0,1,9738579,3524,1
45620,u1a1mn06,a,kind,1,17785,41.8470588235294,2.14498469386026,103.207991986646,1,0,0,0,0,0,0,1,9738579,175486,1
45621,u1a1mn06,a,movie,1,9133,21.4894117647059,2.96579042660414,83.3342411713917,1,0,0,0,0,0,0,1,9738579,51017,1
45622,u1a1mn06,a,normal,1,5040,11.8588235294118,2.70481446561135,60.1040330276526,1,0,0,0,0,0,0,1,9738579,33736,1
45623,u1a1mn06,a,possible,1,5294,12.4564705882353,1.33047543242258,43.8278458514074,1,0,0,0,0,0,0,1,9738579,91868,1
45624,u1a1mn06,a,straight,1,2775,6.52941176470588,1.62996606029025,35.658140929177,1,0,0,0,0,0,0,1,9738579,39128,1
45625,u1a1mn06,a,thrilling,1,271,0.637647058823529,2.95138410349627,14.3337940180954,1,0,0,0,0,0,0,1,9738579,1529,1
45626,u1a1mn06,advantages,as,1,69,0.162352941176471,0.725622567720546,3.28330915927422,1,0,0,0,0,1,0,0,6812,2603330,1
45627,u1a1mn06,advantages,of,1,1839,4.32705882352941,3.33912201366001,38.6460118824034,0,1,0,0,0,0,0,1,6812,11337574,1
45628,u1a1mn06,all,emergency,1,20,0.0470588235294118,-1.54384278537417,-8.56727535690574,1,0,0,0,1,0,0,0,1160709,21352,1
45629,u1a1mn06,all,in,1,9954,23.4211764705882,-1.12062341705125,-117.17048727754,1,0,0,0,1,0,0,0,1160709,7925095,1
45631,u1a1mn06,also,very,1,1420,3.34117647058824,1.38251604143226,23.2296420408297,1,0,0,0,0,0,0,1,506846,456691,1
45632,u1a1mn06,among,young,1,806,1.89647058823529,3.91308962035813,26.5055782630147,0,1,0,0,0,0,0,1,149884,151709,1
45633,u1a1mn06,and,be,1,13172,30.9929411764706,-2.06631238094826,-365.901607650738,1,0,0,0,1,0,0,0,11675497,2008109,1
45634,u1a1mn06,and,it,1,151665,356.858823529412,0.390692887079871,92.3899590832937,1,0,0,0,0,0,0,1,11675497,4211033,1
45635,u1a1mn06,and,make,1,17038,40.0894117647059,0.675964486122562,48.8293770569859,1,0,0,0,0,0,0,1,11675497,388192,1
45636,u1a1mn06,and,more,1,43882,103.251764705882,0.648176352942597,75.8137768831793,1,0,0,0,0,0,0,1,11675497,1019247,1
45637,u1a1mn06,and,see,1,13778,32.4188235294118,0.134498494353856,10.4483857119454,1,0,0,0,0,0,0,1,11675497,456890,1
45638,u1a1mn06,and,your,1,18019,42.3976470588235,-0.134681409812745,-13.1349287385307,1,0,0,0,1,0,0,0,11675497,720091,1
45640,u1a1mn06,answer,if,1,72,0.169411764705882,-1.12299342237808,-9.99552654842512,1,0,0,0,1,0,0,0,65810,1012708,1
45641,u1a1mn06,answers,his,1,71,0.167058823529412,-0.348544959847071,-2.30266289027452,1,0,0,0,1,0,0,0,19553,1964972,1
45642,u1a1mn06,any,more,1,10109,23.7858823529412,3.47090180007077,91.4755848646484,0,1,0,0,0,0,0,1,380165,1019247,1
45643,u1a1mn06,anywhere,you,1,302,0.710588235294118,0.891015755662685,8.00725369147969,1,0,0,0,0,0,1,0,20650,3351609,1
45644,u1a1mn06,are,a,1,58915,138.623529411765,-0.0307242636363989,-5.22459408691207,1,0,0,0,1,0,0,0,2626444,9738579,1
45645,u1a1mn06,are,easily,1,936,2.20235294117647,2.14370388080692,23.6707277515082,1,0,0,0,0,0,0,1,2626444,34275,1
45646,u1a1mn06,are,much,1,4562,10.7341176470588,0.875420425906401,30.7254574321373,1,0,0,0,0,0,0,1,2626444,402391,1
45647,u1a1mn06,are,no,1,16914,39.7976470588235,1.7158126467851,90.4614112105374,1,0,0,0,0,0,0,1,2626444,833213,1
45648,u1a1mn06,are,not,2,170635,401.494117647059,2.97245380967768,360.449540232225,1,0,0,0,0,0,0,1,2626444,3517962,1
45649,u1a1mn06,are,so,1,20114,47.3270588235294,1.64000890348193,96.3190197308037,1,0,0,0,0,0,0,1,2626444,1044305,1
45650,u1a1mn06,are,some,1,14133,33.2541176470588,1.64932217283601,80.9838198828823,1,0,0,0,0,0,0,1,2626444,729054,1
45651,u1a1mn06,are,two,1,9148,21.5247058823529,1.41824796104111,59.8579627771327,1,0,0,0,0,0,0,1,2626444,553875,1
45652,u1a1mn06,arguments,of,2,386,0.908235294117647,0.291427471335699,3.59354869190432,1,0,0,0,0,1,0,0,11823,11337574,1
45653,u1a1mn06,as,a,1,366308,861.901176470588,2.6183786674053,506.671118464421,1,0,0,0,0,0,0,1,2603330,9738579,1
45654,u1a1mn06,as,disadvantages,1,5,0.0117647058823529,-0.626319092879,-1.21557474641047,1,0,0,0,1,0,0,0,2603330,1260,1
45655,u1a1mn06,as,many,1,18475,43.4705882352941,2.86028996604916,117.204784925988,1,0,0,0,0,0,0,1,2603330,415347,1
45656,u1a1mn06,at,all,1,60410,142.141176470588,3.3662770203571,221.950067340824,0,1,0,0,0,0,0,1,2144984,1160709,1
45657,u1a1mn06,at,the,1,618023,1454.17176470588,2.36311029159573,633.340207560666,1,0,0,0,0,0,0,1,2144984,23801396,1
45658,u1a1mn06,attached,to,1,7248,17.0541176470588,4.58070656816459,81.5774072330723,0,1,0,0,0,0,0,1,11619,11079197,1
45659,u1a1mn06,available,all,1,66,0.155294117647059,-1.5060130659668,-14.9501840083242,1,0,0,0,1,0,0,0,68638,1160709,1
45660,u1a1mn06,be,easily,1,1518,3.57176470588235,3.22856848009813,34.8049032362326,0,1,0,0,0,0,0,1,2008109,34275,1
45661,u1a1mn06,be,extremely,1,1374,3.23294117647059,3.73846780385415,34.2903362774603,0,1,0,0,0,0,0,1,2008109,21787,1
45662,u1a1mn06,be,successful,1,2698,6.34823529411765,3.89847604344736,48.4592012935077,0,1,0,0,0,0,0,1,2008109,38290,1
45663,u1a1mn06,be,very,1,14449,33.9976470588235,2.74330464529774,102.252445055109,1,0,0,0,0,0,0,1,2008109,456691,1
45664,u1a1mn06,being,available,1,103,0.242352941176471,1.12205816065524,5.48610593783018,1,0,0,0,0,1,0,0,293014,68638,1
45665,u1a1mn06,being,that,1,1403,3.30117647058824,-1.46360958161721,-65.8478539958296,1,0,0,0,1,0,0,0,293014,5612400,1
45666,u1a1mn06,blessing,or,1,45,0.105882352941176,1.46901331382678,4.28500435057351,1,0,0,0,0,1,0,0,4638,1489545,1
45667,u1a1mn06,brain,cancer,1,296,0.696470588235294,6.60260059261751,17.0276131320813,0,0,1,0,0,0,0,1,31563,41013,1
45727,u1a1mn06,her,call,1,274,0.644705882352941,-0.865013840380905,-13.595879859621,1,0,0,0,1,0,0,0,1486158,142715,1
45668,u1a1mn06,business,and,1,6347,14.9341176470588,0.677915016489604,29.8701079290202,1,0,0,0,0,0,0,1,144414,11675497,1
45669,u1a1mn06,businessmen,who,1,220,0.517647058823529,4.78710130110192,14.2951793442897,0,1,0,0,0,0,0,1,3057,1107784,1
45670,u1a1mn06,but,lots,1,191,0.449411764705882,0.644302030653327,4.97803195621787,1,0,0,0,0,1,0,0,1970555,26356,1
45671,u1a1mn06,but,should,1,1120,2.63529411764706,-0.474976278991067,-13.048394716818,1,0,0,0,1,0,0,0,1970555,335738,1
45672,u1a1mn06,buyer,from,1,22,0.0517647058823529,0.286159295195222,0.843888549175701,1,0,0,0,1,0,0,0,4294,1785694,1
45673,u1a1mn06,call,you,2,3254,7.65647058823529,1.53168626212957,37.3139254611189,1,0,0,0,0,0,0,1,142715,3351609,1
45674,u1a1mn06,calls,are,1,387,0.910588235294118,0.217685657609427,2.75522907265637,1,0,0,0,0,1,0,0,53852,2626444,1
45675,u1a1mn06,can,be,3,143597,337.875294117647,4.76271154923506,364.982969301997,0,1,0,0,0,0,0,1,1119510,2008109,1
45676,u1a1mn06,can,call,1,2499,5.88,2.73280935094525,42.4698656626998,1,0,0,0,0,0,0,1,1119510,142715,1
45677,u1a1mn06,can,discourage,1,31,0.0729411764705882,2.06937729230953,4.24117591951644,1,0,0,0,0,1,0,0,1119510,2804,1
45678,u1a1mn06,can,go,1,10985,25.8470588235294,3.35712176159624,94.5809983556175,0,1,0,0,0,0,0,1,1119510,406974,1
45679,u1a1mn06,cancer,than,1,146,0.343529411764706,1.13707497800253,6.58912064702211,1,0,0,0,0,0,1,0,41013,687902,1
45680,u1a1mn06,cases,of,1,6075,14.2941176470588,1.84803295299495,56.2921921909195,1,0,0,0,0,0,0,1,63256,11337574,1
45681,u1a1mn06,common,that,1,189,0.444705882352941,-2.19002848655231,-48.9851445231928,1,0,0,0,1,0,0,0,65308,5612400,1
45682,u1a1mn06,considered,as,1,1250,2.94117647058824,1.98054542579944,26.3965063790148,1,0,0,0,0,0,0,1,51709,2603330,1
45683,u1a1mn06,content,of,1,3959,9.31529411764706,2.47773040248748,51.6246656315966,1,0,0,0,0,0,0,1,26643,11337574,1
45684,u1a1mn06,course,you,1,1523,3.58352941176471,0.308080632577954,7.50401906464276,1,0,0,0,0,0,1,0,155989,3351609,1
45685,u1a1mn06,curse,for,1,35,0.0823529411764706,0.184758605720059,0.711134841096808,1,0,0,0,1,0,0,0,3524,3713669,1
45686,u1a1mn06,difficult,to,2,23434,55.1388235294118,3.7046321432559,141.340333477538,0,1,0,0,0,0,0,1,68948,11079197,1
45687,u1a1mn06,disadvantages,which,1,2,0.00470588235294118,-0.133232694525545,-0.136822999244737,1,0,0,0,1,0,0,0,1260,739870,1
45688,u1a1mn06,discourage,a,1,57,0.134117647058824,-0.172772866342677,-0.960512069323349,1,0,0,0,1,0,0,0,2804,9738579,1
45689,u1a1mn06,do,not,2,605718,1425.21882352941,5.67212494049828,763.01532243995,0,0,1,0,0,0,0,1,1435121,3517962,1
45690,u1a1mn06,do,whatever,1,2946,6.93176470588235,4.00111688268183,50.8873754876064,0,1,0,0,0,0,0,1,1435121,54485,1
45691,u1a1mn06,does,not,1,195548,460.112941176471,6.08813137287153,435.708048337846,0,0,1,0,0,0,0,1,347249,3517962,1
45692,u1a1mn06,doing,that,1,5896,13.8729411764706,1.54916695652632,50.5472770821506,1,0,0,0,0,0,0,1,152564,5612400,1
45693,u1a1mn06,drive,a,1,1589,3.73882352941176,0.397803744525575,9.60629228241126,1,0,0,0,0,0,1,0,52634,9738579,1
45694,u1a1mn06,during,a,1,15611,36.7317647058824,1.72845146947743,87.2389285543387,1,0,0,0,0,0,0,1,205593,9738579,1
45695,u1a1mn06,easily,accessible,1,468,1.10117647058824,9.79728454863023,21.6089942132448,0,0,0,1,0,0,0,1,34275,6522,1
45696,u1a1mn06,easily,considered,1,1,0.00235294117647059,-2.06010922957564,-3.17017876470588,1,0,0,0,1,0,0,0,34275,51709,1
45697,u1a1mn06,end,of,1,74267,174.745882352941,3.95391536352825,254.934382183229,0,1,0,0,0,0,0,1,179646,11337574,1
45698,u1a1mn06,especially,among,1,779,1.83294117647059,4.7320590117262,26.860359356111,0,1,0,0,0,0,0,1,83115,149884,1
45699,u1a1mn06,especially,in,1,9736,22.9082352941176,2.65118300714215,82.9637576872838,1,0,0,0,0,0,0,1,83115,7925095,1
45700,u1a1mn06,exchange,information,1,144,0.338823529411765,4.14153464801324,11.3200842698039,0,1,0,0,0,0,0,1,25327,136912,1
45701,u1a1mn06,expensive,than,1,934,2.19764705882353,4.6140259778351,29.3134175090687,0,1,0,0,0,0,0,1,23564,687902,1
45702,u1a1mn06,extremely,helpful,1,145,0.341176470588235,7.98958041095367,11.9942161510359,0,0,0,1,0,0,0,1,21787,11129,1
45703,u1a1mn06,fact,that,1,50897,119.757647058824,4.61591771015073,216.403029339724,0,1,0,0,0,0,0,1,157182,5612400,1
45704,u1a1mn06,find,anyone,1,315,0.741176470588235,3.51706981734341,16.1979535637816,0,1,0,0,0,0,0,1,183784,63628,1
45705,u1a1mn06,first,of,1,18383,43.2541176470588,0.401715615485623,32.9526427700411,1,0,0,0,0,0,0,1,521623,11337574,1
45706,u1a1mn06,for,example,1,84149,197.997647058824,6.35377702233655,286.537586252503,0,0,1,0,0,0,0,1,3713669,117749,1
45707,u1a1mn06,for,hours,1,3957,9.31058823529412,2.26918245960537,49.8552749206631,1,0,0,0,0,0,0,1,3713669,93942,1
45708,u1a1mn06,for,the,1,616442,1450.45176470588,1.56753657516732,520.245143343317,1,0,0,0,0,0,0,1,3713669,23801396,1
45709,u1a1mn06,freedom,given,1,2,0.00470588235294118,-2.12205756719889,-4.74206096436977,1,0,0,0,1,0,0,0,34855,106159,1
45710,u1a1mn06,frequently,are,1,184,0.432941176470588,0.444115399308071,3.59416187297649,1,0,0,0,0,1,0,0,21885,2626444,1
45711,u1a1mn06,from,doing,1,1579,3.71529411764706,1.30057455927377,23.6049710756537,1,0,0,0,0,0,0,1,1785694,152564,1
45712,u1a1mn06,from,ordinary,1,247,0.581176470588235,1.89310118519224,11.4849880392089,1,0,0,0,0,0,0,1,1785694,15827,1
45713,u1a1mn06,getting,in,1,2136,5.02588235294118,-0.0884257298082096,-2.92134006239955,1,0,0,0,1,0,0,0,121788,7925095,1
45714,u1a1mn06,give,a,1,7965,18.7411764705882,1.12986074222617,48.4646237427757,1,0,0,0,0,0,0,1,158839,9738579,1
45715,u1a1mn06,give,up,1,10510,24.7294117647059,4.86817998348103,99.0080805693861,0,1,0,0,0,0,0,1,158839,962867,1
45716,u1a1mn06,given,to,1,9022,21.2282352941176,1.70490202521131,65.8485558110448,1,0,0,0,0,0,0,1,106159,11079197,1
45717,u1a1mn06,go,anywhere,1,1561,3.67294117647059,6.30271115748529,39.0090014532164,0,0,1,0,0,0,0,1,406974,20650,1
45718,u1a1mn06,go,to,1,72934,171.609411764706,2.78126441034644,230.778476156219,1,0,0,0,0,0,0,1,406974,11079197,1
45719,u1a1mn06,hand,there,1,190,0.447058823529412,-1.18941476516117,-17.6518819021868,1,0,0,0,1,0,0,0,152506,1207550,1
45720,u1a1mn06,happens,very,1,54,0.127058823529412,0.532273947052566,2.26726728006481,1,0,0,0,0,1,0,0,34748,456691,1
45721,u1a1mn06,have,a,1,188867,444.392941176471,1.82495795303277,311.92605257915,1,0,0,0,0,0,0,1,2326389,9738579,1
45722,u1a1mn06,have,as,1,2254,5.30352941176471,-2.6604282913387,-252.678752738443,1,0,0,0,1,0,0,0,2326389,2603330,1
45723,u1a1mn06,have,to,1,227826,536.061176470588,1.90944956711885,350.253794753372,1,0,0,0,0,0,0,1,2326389,11079197,1
45724,u1a1mn06,having,one,1,744,1.75058823529412,1.06039565834605,14.1973324483807,1,0,0,0,0,0,0,1,123083,1231836,1
45725,u1a1mn06,health,problems,1,2611,6.14352941176471,6.26269580434846,50.4324511629496,0,0,1,0,0,0,0,1,139722,103436,1
45726,u1a1mn06,helpful,in,1,1313,3.08941176470588,2.6615056584235,30.5081817316263,1,0,0,0,0,0,0,1,11129,7925095,1
45728,u1a1mn06,his,or,1,9245,21.7529411764706,0.424827602259671,24.5254329621516,1,0,0,0,0,0,0,1,1964972,1489545,1
45730,u1a1mn06,how,strongly,1,174,0.409411764705882,3.01265563978313,11.55644364988,0,1,0,0,0,0,0,1,588618,15567,1
45731,u1a1mn06,if,they,2,71153,167.418823529412,3.88880449975228,248.737846754063,0,1,0,0,0,0,0,1,1012708,2015817,1
45732,u1a1mn06,if,your,1,10620,24.9882352941176,2.62977721319454,86.4031466242977,1,0,0,0,0,0,0,1,1012708,720091,1
45733,u1a1mn06,important,to,1,21698,51.0541176470588,2.41616204650534,119.704728284708,1,0,0,0,0,0,0,1,155942,11079197,1
45734,u1a1mn06,in,a,1,544558,1281.31294117647,1.58433714559416,491.854508118502,1,0,0,0,0,0,0,1,7925095,9738579,1
45735,u1a1mn06,in,all,1,31551,74.2376470588235,0.543714022563957,55.7741034529707,1,0,0,0,0,0,0,1,7925095,1160709,1
45736,u1a1mn06,in,cases,1,2115,4.97647058823529,0.842418040435689,20.340622333287,1,0,0,0,0,0,0,1,7925095,63256,1
45737,u1a1mn06,in,it,1,22201,52.2376470588235,-1.82251490797249,-378.008868111094,1,0,0,0,1,0,0,0,7925095,4211033,1
45738,u1a1mn06,in,order,1,43218,101.689411764706,4.63081630202069,199.498316381219,0,1,0,0,0,0,0,1,7925095,93548,1
45739,u1a1mn06,in,places,1,3227,7.59294117647059,1.93249917711795,41.9247595284714,1,0,0,0,0,0,0,1,7925095,45336,1
45740,u1a1mn06,in,practice,1,3762,8.85176470588235,1.81582670855148,43.9134224987001,1,0,0,0,0,0,0,1,7925095,57304,1
45741,u1a1mn06,in,touch,1,5470,12.8705882352941,3.16693457649881,65.7246804785773,0,1,0,0,0,0,0,1,7925095,32661,1
45742,u1a1mn06,information,and,1,5848,13.76,0.636745193275696,27.2881680962624,1,0,0,0,0,0,0,1,136912,11675497,1
45743,u1a1mn06,is,also,1,50438,118.677647058824,2.83700010892584,193.153161341149,1,0,0,0,0,0,0,1,5919004,506846,1
45744,u1a1mn06,is,difficult,1,8662,20.3811764705882,3.17322797324182,82.7524182780176,0,1,0,0,0,0,0,1,5919004,68948,1
45745,u1a1mn06,is,in,1,74453,175.183529411765,-0.567989838020481,-131.643470731051,1,0,0,0,1,0,0,0,5919004,7925095,1
45746,u1a1mn06,is,that,1,159047,374.228235294118,1.02487182932302,202.811706283562,1,0,0,0,0,0,0,1,5919004,5612400,1
45747,u1a1mn06,is,very,1,45521,107.108235294118,2.83935039650981,183.545528726254,1,0,0,0,0,0,0,1,5919004,456691,1
45748,u1a1mn06,it,is,3,1083797,2550.11058823529,4.20788497676676,984.721223002061,0,1,0,0,0,0,0,1,4211033,5919004,1
45749,u1a1mn06,job,requires,1,84,0.197647058823529,3.58698414687966,8.40245828384136,0,1,0,0,0,0,1,0,121313,24489,1
45750,u1a1mn06,jobs,still,1,8,0.0188235294117647,-2.2744418072927,-10.855797702445,1,0,0,0,1,0,0,0,48663,338030,1
45751,u1a1mn06,kind,of,1,154651,363.884705882353,5.04593919194319,381.352793012453,0,0,1,0,0,0,0,1,175486,11337574,1
45752,u1a1mn06,let,us,1,83254,195.891764705882,8.17657879779859,287.540435555654,0,0,0,1,0,0,0,1,240608,508263,1
45753,u1a1mn06,likely,to,1,44867,105.569411764706,4.40541059946823,201.822858453587,0,1,0,0,0,0,0,1,81217,11079197,1
45754,u1a1mn06,living,at,1,1082,2.54588235294118,1.25319374660644,19.0942248289437,1,0,0,0,0,0,0,1,89938,2144984,1
45755,u1a1mn06,lots,of,1,21201,49.8847058823529,4.91427985188638,140.776906116027,0,1,0,0,0,0,0,1,26356,11337574,1
45756,u1a1mn06,made,from,1,5314,12.5035294117647,1.98364234203579,54.4650831430487,1,0,0,0,0,0,0,1,319792,1785694,1
45757,u1a1mn06,make,business,1,62,0.145882352941176,-1.08917803384384,-8.87816336046427,1,0,0,0,1,0,0,0,388192,144414,1
45758,u1a1mn06,make,quick,1,148,0.348235294117647,2.29352380224607,9.68404152836462,1,0,0,0,0,0,1,0,388192,33051,1
45759,u1a1mn06,many,advantages,1,179,0.421176470588235,4.74888304944232,12.8814997323367,0,1,0,0,0,0,0,1,415347,6812,1
45760,u1a1mn06,matter,how,1,9636,22.6729411764706,6.29747806900235,96.9151179982071,0,0,1,0,0,0,0,1,88455,588618,1
45761,u1a1mn06,matter,where,1,1367,3.21647058823529,3.88862038589859,34.4766854963278,0,1,0,0,0,0,0,1,88455,443449,1
45762,u1a1mn06,may,cause,1,1191,2.80235294117647,4.58604350512458,33.0739920737687,0,1,0,0,0,0,0,1,386099,54584,1
45763,u1a1mn06,mention,the,1,2938,6.91294117647059,1.37982696933967,33.374888337585,1,0,0,0,0,0,0,1,20159,23801396,1
45764,u1a1mn06,mobile,phone,3,508,1.19529411764706,8.53373129324967,22.4780386516434,0,0,0,1,0,0,0,1,8096,71957,1
45765,u1a1mn06,mobile,phones,4,373,0.877647058823529,11.2936674372732,19.3055144548342,0,0,0,1,0,0,0,1,8096,7800,1
45766,u1a1mn06,more,and,1,15132,35.6047058823529,-0.887850246182985,-104.611633155328,1,0,0,0,1,0,0,0,1019247,11675497,1
45767,u1a1mn06,more,expensive,1,3002,7.06352941176471,5.73122674450594,53.759093372644,0,0,1,0,0,0,0,1,1019247,23564,1
45768,u1a1mn06,more,likely,1,18135,42.6705882352941,6.54081032799369,133.219886555921,0,0,1,0,0,0,0,1,1019247,81217,1
45769,u1a1mn06,more,people,1,7355,17.3058823529412,2.04315499332726,64.9528146028505,1,0,0,0,0,0,0,1,1019247,744117,1
45770,u1a1mn06,most,frequently,1,1729,4.06823529411765,6.13518547873412,40.9896533011247,0,0,1,0,0,0,0,1,477708,21885,1
45771,u1a1mn06,mountains,for,1,136,0.32,-0.231331337653833,-2.02821213823476,1,0,0,0,1,0,0,0,18271,3713669,1
45773,u1a1mn06,much,more,1,30701,72.2376470588235,4.99157483606803,169.709406806546,0,1,0,0,0,0,0,1,402391,1019247,1
45774,u1a1mn06,no,matter,2,21096,49.6376470588235,6.92658755849941,144.050662182128,0,0,1,0,0,0,0,1,833213,88455,1
45775,u1a1mn06,no,other,1,8770,20.6352941176471,2.73121253574914,79.5449081743424,1,0,0,0,0,0,0,1,833213,673683,1
45776,u1a1mn06,normal,phone,1,7,0.0164705882352941,0.293393796950281,0.486870398554503,1,0,0,0,1,0,0,0,33736,71957,1
45777,u1a1mn06,not,anonymous,1,31,0.0729411764705882,-0.795670496725657,-4.09722839849748,1,0,0,0,1,0,0,0,3517962,6501,1
45778,u1a1mn06,not,have,1,140750,331.176470588235,2.86969360631278,323.837919853449,1,0,0,0,0,0,0,1,3517962,2326389,1
45779,u1a1mn06,not,out,1,1984,4.66823529411765,-2.06375338370528,-141.676248742554,1,0,0,0,1,0,0,0,3517962,1002054,1
45780,u1a1mn06,not,use,1,6804,16.0094117647059,1.78369599315408,58.5291571632904,1,0,0,0,0,0,0,1,3517962,238735,1
45781,u1a1mn06,not,you,1,37609,88.4917647058823,0.438947034955528,50.8732168751831,1,0,0,0,0,0,0,1,3517962,3351609,1
45782,u1a1mn06,of,all,2,78170,183.929411764706,1.33603149577896,168.841338871475,1,0,0,0,0,0,0,1,11337574,1160709,1
45783,u1a1mn06,of,control,1,7786,18.32,1.37581620279592,54.2370346536665,1,0,0,0,0,0,0,1,11337574,112466,1
45784,u1a1mn06,of,course,1,104551,246.002352941176,4.65104153287554,310.473988149262,0,1,0,0,0,0,0,1,11337574,155989,1
45785,u1a1mn06,of,freedom,1,4406,10.3670588235294,2.24445474145527,52.3697744407118,1,0,0,0,0,0,0,1,11337574,34855,1
45786,u1a1mn06,of,getting,1,6877,16.1811764705882,1.08183013594542,43.7502269884375,1,0,0,0,0,0,0,1,11337574,121788,1
45787,u1a1mn06,of,having,1,8995,21.1647058823529,1.4539145474606,60.221843863079,1,0,0,0,0,0,0,1,11337574,123083,1
45788,u1a1mn06,of,mobile,2,370,0.870588235294118,0.776666854748609,8.00742444067391,1,0,0,0,0,0,1,0,11337574,8096,1
45789,u1a1mn06,of,people,1,58218,136.983529411765,1.55228667360444,159.013630589102,1,0,0,0,0,0,0,1,11337574,744117,1
45790,u1a1mn06,of,range,1,447,1.05176470588235,-1.50040248906228,-38.6739765258089,1,0,0,0,1,0,0,0,11337574,47407,1
45791,u1a1mn06,of,the,4,2586878,6086.77176470588,2.02651669759191,1213.60606217092,1,0,0,0,0,0,0,1,11337574,23801396,1
45792,u1a1mn06,on,the,1,920151,2165.06117647059,2.4717278162797,786.31700816545,1,0,0,0,0,0,0,1,2961975,23801396,1
45793,u1a1mn06,only,advantages,1,6,0.0141176470588235,-0.516512726685074,-1.05448888906643,1,0,0,0,1,0,0,0,535490,6812,1
45795,u1a1mn06,or,a,1,51573,121.348235294118,0.59549582435569,76.8003177749609,1,0,0,0,0,0,0,1,1489545,9738579,1
45796,u1a1mn06,or,her,1,12203,28.7129411764706,1.2282394943294,63.3155960285109,1,0,0,0,0,0,0,1,1489545,1486158,1
45797,u1a1mn06,or,three,1,9319,21.9270588235294,3.19746477511877,86.0116702544881,0,1,0,0,0,0,0,1,1489545,289849,1
45798,u1a1mn06,order,to,1,39301,92.4729411764706,4.01039682683905,185.943468395739,0,1,0,0,0,0,0,1,93548,11079197,1
45799,u1a1mn06,ordinary,telephones,1,2,0.00470588235294118,5.05636253826233,1.37171265473144,0,0,1,0,1,0,0,0,15827,1614,1
45800,u1a1mn06,other,hand,1,20526,48.2964705882353,6.40783564342221,141.58164236826,0,0,1,0,0,0,0,1,673683,152506,1
45801,u1a1mn06,other,people,1,17357,40.84,3.87923727046633,122.79292709877,0,1,0,0,0,0,0,1,673683,744117,1
45802,u1a1mn06,other,possibilities,1,315,0.741176470588235,4.39627266230028,16.9053989650479,0,1,0,0,0,0,0,1,673683,9437,1
45803,u1a1mn06,other,thing,1,3254,7.65647058823529,3.36463701627979,51.5058535442605,0,1,0,0,0,0,0,1,673683,199294,1
45804,u1a1mn06,out,of,1,257300,605.411764705882,3.26684207464068,454.54846643918,0,1,0,0,0,0,0,1,1002054,11337574,1
45805,u1a1mn06,outside,world,1,2242,5.27529411764706,5.00154453547853,45.8716656154142,0,0,1,0,0,0,0,1,92736,320746,1
45806,u1a1mn06,owner,of,1,6287,14.7929411764706,3.32876562857126,71.399034480293,0,1,0,0,0,0,0,1,23456,11337574,1
45807,u1a1mn06,owners,and,1,1380,3.24705882352941,1.35235683712032,22.5991359504079,1,0,0,0,0,0,0,1,19674,11675497,1
45808,u1a1mn06,people,can,1,7324,17.2329411764706,1.90169773836781,62.6766473558741,1,0,0,0,0,0,0,1,744117,1119510,1
45809,u1a1mn06,people,living,1,1729,4.06823529411765,3.45679661870635,37.7942220511331,0,1,0,0,0,0,0,1,744117,89938,1
45772,u1a1mn06,movie,someone,1,,,,,0,0,0,0,0,0,0,0,51017,104097,0
45810,u1a1mn06,people,rush,1,44,0.103529411764706,0.535832276337953,2.05789506562087,1,0,0,0,0,1,0,0,744117,17334,1
45811,u1a1mn06,phone,can,1,59,0.138823529411765,-1.6837527538823,-16.9954979270532,1,0,0,0,1,0,0,0,71957,1119510,1
45812,u1a1mn06,phone,is,1,635,1.49411764705882,-0.658270038233766,-14.569905262144,1,0,0,0,1,0,0,0,71957,5919004,1
45813,u1a1mn06,phone,owners,1,10,0.0235294117647059,1.58596558894496,2.10891774971579,1,0,0,0,0,1,0,0,71957,19674,1
45814,u1a1mn06,phone,to,1,1607,3.78117647058824,-0.223155590634471,-6.70598070790002,1,0,0,0,1,0,0,0,71957,11079197,1
45815,u1a1mn06,phones,are,1,326,0.767058823529412,2.75767795237157,15.3857543698833,1,0,0,0,0,0,0,1,7800,2626444,1
45816,u1a1mn06,phones,can,1,59,0.138823529411765,1.52183625665815,5.00624517301988,1,0,0,0,0,1,0,0,7800,1119510,1
45817,u1a1mn06,phones,may,1,12,0.0282352941176471,0.759980400305572,1.41853453236835,1,0,0,0,1,0,0,0,7800,386099,1
45818,u1a1mn06,phones,seem,1,1,0.00235294117647059,-0.290817932328381,-0.223333647058824,1,0,0,0,1,0,0,0,7800,66656,1
45819,u1a1mn06,places,where,1,3238,7.61882352941176,6.09699671591601,56.0721236182957,0,0,1,0,0,0,0,1,45336,443449,1
45820,u1a1mn06,possibilities,of,1,1475,3.47058823529412,2.55066562027517,31.8507822677371,1,0,0,0,0,0,0,1,9437,11337574,1
45822,u1a1mn06,practice,false,1,,,,,0,0,0,0,0,0,0,0,57304,14158,0
45823,u1a1mn06,problems,which,1,238,0.56,0.402414222222101,3.75512907454918,1,0,0,0,0,1,0,0,103436,739870,1
45824,u1a1mn06,quick,decisions,1,69,0.162352941176471,4.86679500094291,8.02193317139398,0,1,0,0,0,0,1,0,33051,30409,1
45825,u1a1mn06,requires,being,1,28,0.0658823529411765,0.729786208043324,2.10076218259043,1,0,0,0,0,1,0,0,24489,293014,1
45826,u1a1mn06,revealed,that,1,4794,11.28,4.2630062407249,65.6324638870869,0,1,0,0,0,0,0,1,18908,5612400,1
45827,u1a1mn06,rush,somewhere,1,1,0.00235294117647059,-0.0583918149183124,-0.0413043623529412,1,0,0,0,1,0,0,0,17334,25531,1
45828,u1a1mn06,same,power,1,100,0.235294117647059,0.324531068536465,2.01442093741176,1,0,0,0,0,1,0,0,242274,140084,1
45829,u1a1mn06,scene,in,1,2598,6.11294117647059,1.72846420607334,35.5890333142774,1,0,0,0,0,0,0,1,42044,7925095,1
45830,u1a1mn06,scientists,revealed,1,9,0.0211764705882353,2.71097100348225,2.54181837803922,1,0,0,0,0,1,0,0,30896,18908,1
45831,u1a1mn06,see,only,1,692,1.62823529411765,0.265528379000037,4.42217836518961,1,0,0,0,0,1,0,0,456890,535490,1
45832,u1a1mn06,seem,to,1,35024,82.4094117647059,4.33314673000816,177.862133111501,0,1,0,0,0,0,0,1,66656,11079197,1
45833,u1a1mn06,sense,of,1,49201,115.767058823529,4.15267826809403,209.341841727795,0,1,0,0,0,0,0,1,103696,11337574,1
45834,u1a1mn06,should,we,1,4799,11.2917647058824,1.62151666811373,46.7609416609416,1,0,0,0,0,0,0,1,335738,1974304,1
45835,u1a1mn06,sit,for,1,699,1.64470588235294,0.884910124169263,12.1215398244902,1,0,0,0,0,0,0,1,43319,3713669,1
45836,u1a1mn06,some,disadvantages,1,33,0.0776470588235294,3.93240754998988,5.3683058598433,0,1,0,0,0,1,0,0,729054,1260,1
45837,u1a1mn06,someone,answers,1,16,0.0376470588235294,1.74021627857416,2.80270079941176,1,0,0,0,0,1,0,0,104097,19553,1
45838,u1a1mn06,somewhere,with,1,169,0.397647058823529,-0.0500527195626489,-0.458935822986424,1,0,0,0,1,0,0,0,25531,2912562,1
45839,u1a1mn06,still,done,1,52,0.122352941176471,-1.07328130269116,-7.96259899889401,1,0,0,0,1,0,0,0,338030,137571,1
45840,u1a1mn06,stop,being,1,606,1.42588235294118,3.43574424894858,22.342104784306,0,1,0,0,0,0,0,1,81229,293014,1
45841,u1a1mn06,straight,answer,1,145,0.341176470588235,4.58086373960992,11.5384339983557,0,1,0,0,0,0,0,1,39128,65810,1
45842,u1a1mn06,strongly,we,1,32,0.0752941176470588,-1.17622844088267,-7.12680045764576,1,0,0,0,1,0,0,0,15567,1974304,1
45843,u1a1mn06,successful,in,1,3134,7.37411764705882,2.13400022647559,43.2279930404932,1,0,0,0,0,0,0,1,38290,7925095,1
45844,u1a1mn06,than,other,1,3235,7.61176470588235,1.56888370401969,37.7055606679168,1,0,0,0,0,0,0,1,687902,673683,1
45845,u1a1mn06,than,those,1,7586,17.8494117647059,3.51319775384218,79.4693331734185,0,1,0,0,0,0,0,1,687902,410485,1
45846,u1a1mn06,that,businessmen,1,27,0.0635294117647059,-0.580312138289086,-2.57299285532879,1,0,0,0,1,0,0,0,5612400,3057,1
45847,u1a1mn06,that,it,1,121454,285.774117647059,1.12700892511201,188.93575345263,1,0,0,0,0,0,0,1,5612400,4211033,1
45848,u1a1mn06,that,objective,1,171,0.402352941176471,0.0379298705088043,0.339319149517038,1,0,0,0,1,0,0,0,5612400,12613,1
45849,u1a1mn06,that,the,1,399093,939.042352941176,0.344523788193565,134.201448010889,1,0,0,0,0,0,0,1,5612400,23801396,1
45850,u1a1mn06,that,they,1,135554,318.950588235294,2.34827611319961,295.873870565784,1,0,0,0,0,0,0,1,5612400,2015817,1
45851,u1a1mn06,the,arguments,1,1653,3.88941176470588,1.31990721757506,24.3714652325649,1,0,0,0,0,0,0,1,23801396,11823,1
45852,u1a1mn06,the,end,1,83548,196.583529411765,3.05386512860468,254.239995199433,0,1,0,0,0,0,0,1,23801396,179646,1
45853,u1a1mn06,the,fact,1,59876,140.884705882353,2.76595847996802,208.721630830571,1,0,0,0,0,0,0,1,23801396,157182,1
45854,u1a1mn06,the,health,1,10486,24.6729411764706,0.422321900292053,25.9870957116326,1,0,0,0,0,0,0,1,23801396,139722,1
45855,u1a1mn06,the,meetings,1,1113,2.61882352941176,0.190622612480669,4.12925562709691,1,0,0,0,0,1,0,0,23801396,17414,1
45856,u1a1mn06,the,mobile,1,708,1.66588235294118,0.642956718530428,9.56835648636434,1,0,0,0,0,0,1,0,23801396,8096,1
45857,u1a1mn06,the,money,1,28673,67.4658823529412,1.51975713318909,110.277748642761,1,0,0,0,0,0,0,1,23801396,178553,1
45858,u1a1mn06,the,most,1,159137,374.44,2.57248501298435,331.855640435647,1,0,0,0,0,0,0,1,23801396,477708,1
45859,u1a1mn06,the,other,2,153984,362.315294117647,2.02905530166957,296.261935713209,1,0,0,0,0,0,0,1,23801396,673683,1
45860,u1a1mn06,the,outside,1,9601,22.5905882352941,0.886471826987537,44.9813054352901,1,0,0,0,0,0,0,1,23801396,92736,1
45861,u1a1mn06,the,owner,1,5919,13.9270588235294,2.17181309645264,59.8607227824231,1,0,0,0,0,0,0,1,23801396,23456,1
45862,u1a1mn06,the,people,1,68564,161.327058823529,0.718338447562745,102.697279921412,1,0,0,0,0,0,0,1,23801396,744117,1
45864,u1a1mn06,the,sense,1,10119,23.8094117647059,0.801123128162539,42.8625559233719,1,0,0,0,0,0,0,1,23801396,103696,1
45865,u1a1mn06,the,time,1,110252,259.416470588235,1.50354676307275,214.935784271342,1,0,0,0,0,0,0,1,23801396,694321,1
45866,u1a1mn06,them,at,1,5894,13.8682352941176,0.670548797578234,28.5387812458765,1,0,0,0,0,0,0,1,733702,2144984,1
45867,u1a1mn06,them,the,1,7854,18.48,-2.38727806643962,-375.024524543487,1,0,0,0,1,0,0,0,733702,23801396,1
45868,u1a1mn06,there,are,2,157063,369.56,4.39554054398126,377.481872870953,0,1,0,0,0,0,0,1,1207550,2626444,1
45869,u1a1mn06,they,are,3,323989,762.327058823529,4.70086026981253,547.314377151344,0,1,0,0,0,0,0,1,2015817,2626444,1
45870,u1a1mn06,thing,is,1,11388,26.7952941176471,2.03665262593267,80.7051807007083,1,0,0,0,0,0,0,1,199294,5919004,1
45871,u1a1mn06,those,made,1,335,0.788235294117647,0.117160584582836,1.42762552126707,1,0,0,0,1,0,0,0,410485,319792,1
45872,u1a1mn06,three,times,1,11160,26.2588235294118,6.73421861219702,104.648630172761,0,0,1,0,0,0,0,1,289849,153702,1
45873,u1a1mn06,thrilling,scene,1,2,0.00470588235294118,3.72490259787335,1.30725696333769,0,1,0,0,1,0,0,0,1529,42044,1
45874,u1a1mn06,times,more,1,2932,6.89882352941176,2.99170829646857,47.3404392526158,1,0,0,0,0,0,0,1,153702,1019247,1
45875,u1a1mn06,to,a,1,246170,579.223529411765,-0.0444468019268452,-15.5235350676129,1,0,0,0,1,0,0,0,11079197,9738579,1
45876,u1a1mn06,to,exchange,1,882,2.07529411764706,0.417783881892823,7.4669824510048,1,0,0,0,0,0,1,0,11079197,25327,1
45877,u1a1mn06,to,find,1,68099,160.232941176471,3.82923196020442,242.598526973373,0,1,0,0,0,0,0,1,11079197,183784,1
45878,u1a1mn06,to,give,1,52619,123.809411764706,3.66762816773331,211.33715339372,0,1,0,0,0,0,0,1,11079197,158839,1
45879,u1a1mn06,to,have,2,166428,391.595294117647,1.45641534141428,259.297808922557,1,0,0,0,0,0,0,1,11079197,2326389,1
45880,u1a1mn06,to,make,1,165705,389.894117647059,4.0333843633341,382.208961705656,0,1,0,0,0,0,0,1,11079197,388192,1
45881,u1a1mn06,to,mention,1,7875,18.5294117647059,3.90546536867152,82.8192696275173,0,1,0,0,0,0,0,1,11079197,20159,1
45882,u1a1mn06,to,sit,1,12318,28.9835294117647,3.44730570879594,100.811643586561,0,1,0,0,0,0,0,1,11079197,43319,1
45883,u1a1mn06,to,the,3,1055357,2483.19294117647,0.766294434928417,423.326353931942,1,0,0,0,0,0,0,1,11079197,23801396,1
45884,u1a1mn06,today,mobile,1,,,,,0,0,0,0,0,0,0,0,199602,8096,0
45885,u1a1mn06,touch,with,1,4985,11.7294117647059,4.47712671650086,67.4343581005835,0,1,0,0,0,0,0,1,32661,2912562,1
45886,u1a1mn06,two,or,1,10827,25.4752941176471,2.47959235461346,85.3967053804896,1,0,0,0,0,0,0,1,553875,1489545,1
45887,u1a1mn06,up,to,1,101410,238.611764705882,2.01440100422012,239.627764506065,1,0,0,0,0,0,0,1,962867,11079197,1
45888,u1a1mn06,us,see,1,4835,11.3764705882353,3.1454847485683,61.6761469941006,0,1,0,0,0,0,0,1,508263,456890,1
45889,u1a1mn06,usage,of,1,489,1.15058823529412,2.35461470182124,17.7897516757601,1,0,0,0,0,0,0,1,3584,11337574,1
45890,u1a1mn06,use,them,2,3815,8.97647058823529,3.21046968561177,55.093017058606,0,1,0,0,0,0,0,1,238735,733702,1
45891,u1a1mn06,very,difficult,1,8452,19.8870588235294,6.83388473590212,91.1288700610644,0,0,1,0,0,0,0,1,456691,68948,1
45892,u1a1mn06,very,important,1,11220,26.4,6.06516380540427,104.342524308128,0,0,1,0,0,0,0,1,456691,155942,1
45893,u1a1mn06,very,often,1,2199,5.17411764705882,3.75309551382323,43.4155867582379,0,1,0,0,0,0,0,1,456691,151774,1
45894,u1a1mn06,very,useful,1,846,1.99058823529412,5.3261375866433,28.3610457556852,0,0,1,0,0,0,0,1,456691,19625,1
45895,u1a1mn06,want,and,1,1143,2.68941176470588,-3.08967173321705,-254.002448729328,1,0,0,0,1,0,0,0,354196,11675497,1
45896,u1a1mn06,we,give,1,2191,5.15529411764706,1.57014299167775,31.0443140683039,1,0,0,0,0,0,0,1,1974304,158839,1
45897,u1a1mn06,we,well,1,44,0.103529411764706,-5.84265734400011,-374.030440429988,1,0,0,0,1,0,0,0,1974304,543554,1
45898,u1a1mn06,well,oppose,1,,,,,0,0,0,0,0,0,0,0,543554,5564,0
45899,u1a1mn06,whatever,you,1,4202,9.88705882352941,3.28975414144838,58.1943646574127,0,1,0,0,0,0,0,1,54485,3351609,1
45900,u1a1mn06,when,during,1,46,0.108235294117647,-3.43487779416265,-66.5642998266458,1,0,0,0,1,0,0,0,1028347,205593,1
45901,u1a1mn06,where,there,1,8353,19.6541176470588,2.72890615935434,77.6087368683646,1,0,0,0,0,0,0,1,443449,1207550,1
45902,u1a1mn06,where,you,1,22841,53.7435294117647,2.70739470405497,127.993075021466,1,0,0,0,0,0,0,1,443449,3351609,1
45903,u1a1mn06,which,can,2,8599,20.2329411764706,2.14149251893132,71.713804456762,1,0,0,0,0,0,0,1,739870,1119510,1
45904,u1a1mn06,which,happens,1,282,0.663529411764706,2.22088435407257,13.1906230698945,1,0,0,0,0,0,0,1,739870,34748,1
45905,u1a1mn06,who,does,1,5940,13.9764705882353,2.71427862614421,65.3274523440497,1,0,0,0,0,0,0,1,1107784,347249,1
45906,u1a1mn06,who,use,1,1907,4.48705882352941,1.61568098856538,29.4194722623789,1,0,0,0,0,0,0,1,1107784,238735,1
45907,u1a1mn06,with,the,1,477583,1123.72470588235,1.54987937084461,455.045409213984,1,0,0,0,0,0,0,1,2912562,23801396,1
45908,u1a1mn06,with,their,1,40666,95.6847058823529,2.3420867158727,161.886131715938,1,0,0,0,0,0,0,1,2912562,1170326,1
45909,u1a1mn06,you,anytime,1,22,0.0517647058823529,-0.585459800086636,-2.34763348904248,1,0,0,0,1,0,0,0,3351609,4186,1
45910,u1a1mn06,you,are,2,324220,762.870588235294,3.96839934681813,533.027387193623,0,1,0,0,0,0,0,1,3351609,2626444,1
45911,u1a1mn06,you,can,1,190718,448.748235294118,4.43311067945312,416.4966585699,0,1,0,0,0,0,0,1,3351609,1119510,1
45912,u1a1mn06,you,do,1,110144,259.162352941176,3.28275560962517,297.778072149927,0,1,0,0,0,0,0,1,3351609,1435121,1
45913,u1a1mn06,you,go,1,23596,55.52,2.87814276771269,132.716362250881,1,0,0,0,0,0,0,1,3351609,406974,1
45914,u1a1mn06,you,stop,1,1713,4.03058823529412,1.4190673504137,25.9110456401517,1,0,0,0,0,0,0,1,3351609,81229,1
45915,u1a1mn06,you,want,2,63788,150.089411764706,4.51327420824929,241.503284913849,0,1,0,0,0,0,0,1,3351609,354196,1
45916,u1a1mn06,young,people,1,12808,30.1364705882353,5.5915280903562,110.82538134199,0,0,1,0,0,0,0,1,151709,744117,1
45917,u1a1mn06,your,job,1,3029,7.12705882352941,3.88131911949522,51.3016478627654,0,1,0,0,0,0,0,1,720091,121313,1
45918,u1a1mn06,your,jobs,1,74,0.174117647058824,-0.156016386639166,-0.982439794303174,1,0,0,0,1,0,0,0,720091,48663,1
45630,u1a1mn06,all,the,2,167877,395.004705882353,1.36881491438954,251.077529055522,1,0,0,0,0,0,0,1,1160709,23801396,1
45794,u1a1mn06,oppose,arguments,1,,,,,0,0,0,0,0,0,0,0,5564,11823,0
45863,u1a1mn06,the,same,1,217905,512.717647058824,4.00540445563674,437.736859735591,0,1,0,0,0,0,0,1,23801396,242274,1
